…
| term        | estimate | std.error | statistic | p.value |
| :---------- | -------: | --------: | --------: | ------: |
| (Intercept) |    1.934 |     0.105 |    18.456 |       0 |
| x           |    3.112 |     0.075 |    41.661 |       0 |

## how can’t bootstrap

``` r
sim_df_nonconst %>% 
  sample_frac(size = 1, replace = TRUE) %>% 
  arrange(x)
```

    ## # A tibble: 250 x 3
    ##         x  error       y
    ##     <dbl>  <dbl>   <dbl>
    ##  1 -1.89   1.62  -2.04  
    ##  2 -1.29   1.40  -0.454 
    ##  3 -0.989 -1.97  -2.93  
    ##  4 -0.989 -1.97  -2.93  
    ##  5 -0.914 -0.908 -1.65  
    ##  6 -0.914 -0.908 -1.65  
    ##  7 -0.914 -0.908 -1.65  
    ##  8 -0.733  0.447  0.248 
    ##  9 -0.733  0.447  0.248 
    ## 10 -0.606 -0.106  0.0774
    ## # … with 240 more rows
…
    ## Warning: `data_frame()` is deprecated, use `tibble()`.
    ## This warning is displayed once per session.

``` r
boot_straps %>% 
  filter(strap_number %in% 1:2) %>% 
  mutate(strap_sample = map(strap_sample, ~arrange(.x, x))) %>% 
  pull(strap_sample)
```

    ## [[1]]
    ## # A tibble: 250 x 3
    ##         x  error       y
    ##     <dbl>  <dbl>   <dbl>
    ##  1 -1.29   1.40  -0.454 
    ##  2 -0.989 -1.97  -2.93  
    ##  3 -0.914 -0.908 -1.65  
    ##  4 -0.914 -0.908 -1.65  
    ##  5 -0.805  0.292 -0.123 
    ##  6 -0.805  0.292 -0.123 
    ##  7 -0.665 -0.544 -0.539 
    ##  8 -0.641 -0.416 -0.338 
    ##  9 -0.606 -0.106  0.0774
    ## 10 -0.606 -0.106  0.0774
    ## # … with 240 more rows
    ## 
    ## [[2]]
    ## # A tibble: 250 x 3
    ##         x  error      y
    ##     <dbl>  <dbl>  <dbl>
    ##  1 -1.89   1.62  -2.04 
    ##  2 -1.89   1.62  -2.04 
    ##  3 -1.29   1.40  -0.454
    ##  4 -1.29   1.40  -0.454
    ##  5 -1.00   0.832 -0.169
    ##  6 -0.914 -0.908 -1.65 
    ##  7 -0.805  0.292 -0.123
    ##  8 -0.665 -0.544 -0.539
    ##  9 -0.665 -0.544 -0.539
    ## 10 -0.665 -0.544 -0.539
    ## # … with 240 more rows
…
