…
``` r
modelr::add_predictions(nyc_airbnb, fit)
```

    ## # A tibble: 40,492 x 6
    ##    price stars boro  neighborhood room_type        pred
    ##    <dbl> <dbl> <fct> <chr>        <fct>           <dbl>
    ##  1    99   5   Bronx City Island  Private room     89.5
    ##  2   200  NA   Bronx City Island  Private room     NA  
    ##  3   300  NA   Bronx City Island  Entire home/apt  NA  
    ##  4   125   5   Bronx City Island  Entire home/apt  89.5
    ##  5    69   5   Bronx City Island  Private room     89.5
    ##  6   125   5   Bronx City Island  Entire home/apt  89.5
    ##  7    85   5   Bronx City Island  Entire home/apt  89.5
    ##  8    39   4.5 Bronx Allerton     Private room     73.5
    ##  9    95   5   Bronx Allerton     Entire home/apt  89.5
    ## 10   125   4.5 Bronx Allerton     Entire home/apt  73.5
    ## # … with 40,482 more rows
…
nest neighborhhods

``` r
nyc_airbnb %>% 
  filter(boro == "Manhattan") %>% 
  nest(data  = -neighborhood) %>% 
  mutate(
    models  = map(.x = data, ~lm(price ~ stars + room_type, data = .x)),
    results  =  map(models, broom::tidy)
  ) %>% 
  select(neighborhood, results) %>% 
  unnest(results)
```

    ## # A tibble: 123 x 6
    ##    neighborhood     term              estimate std.error statistic  p.value
    ##    <chr>            <chr>                <dbl>     <dbl>     <dbl>    <dbl>
    ##  1 Battery Park Ci… (Intercept)         -119.      366.     -0.324 7.48e- 1
    ##  2 Battery Park Ci… stars                 74.0      74.2     0.997 3.27e- 1
    ##  3 Battery Park Ci… room_typePrivate…   -126.       27.6    -4.56  8.11e- 5
    ##  4 Battery Park Ci… room_typeShared …   -160.       56.3    -2.84  7.96e- 3
    ##  5 Chinatown        (Intercept)          337.       60.4     5.59  5.66e- 8
    ##  6 Chinatown        stars                -27.8      13.0    -2.14  3.34e- 2
    ##  7 Chinatown        room_typePrivate…   -109.       11.5    -9.52  1.03e-18
    ##  8 Chinatown        room_typeShared …   -143.       93.2    -1.54  1.25e- 1
    ##  9 Chelsea          (Intercept)          477.      135.      3.53  4.38e- 4
    ## 10 Chelsea          stars                -44.5      27.3    -1.63  1.04e- 1
    ## # … with 113 more rows
…
